-----------------------tags inferidas-----------------------
[ 1.  1.  1.  1.  1.  1.  1.  1.  1.  1.  1.  1.  1.  0.  1.  1.  0.  1.
  1.  1.  1.  1.  1.  1.  1.  1.  1.  1.  1.  1.  1.  1.  0.  1.  1.  1.
  1.  1.  0.  1.  1.  0.  1.  1.  1.  1.  1.  1.  1.  1.  0.  1.  1.  1.
  1.  1.  1.  1.  1.  1.  1.  0.  1.  1.  1.  1.  0.  1.  1.  1.  1.  1.
  0.  1.  1.  1.  0.  1.  1.  1.  1.  0.  0.  1.  1.  1.  1.  1.  0.  0.
  1.  1.  1.  1.  0.  1.  1.  1.  1.  1.  1.  1.  0.  1.  1.  0.  0.  0.
  1.  0.  1.  1.  0.  0.  1.  1.  1.  1.]
--------------------------------------------------------------
1 | 53 | 43
0 | 16 | 6
 0.415254 : 20 passes : dbow+dmc_inferred 0.0s 1.7s
completed pass 20 at alpha 0.002200
END 2015-11-22 18:07:55.612161
0.381356 Doc2Vec(dbow,d100,n5,mc2,t8)_inferred
0.398305 dbow+dmc_inferred
0.398305 dbow+dmm_inferred
0.440678 Doc2Vec(dm/m,d100,n5,w10,mc2,t8)_inferred
0.466102 dbow+dmm
0.474576 Doc2Vec(dm/c,d100,n5,w5,mc2,t8)
0.474576 dbow+dmc
0.483051 Doc2Vec(dbow,d100,n5,mc2,t8)
0.483051 Doc2Vec(dm/m,d100,n5,w10,mc2,t8)
0.491525 Doc2Vec(dm/c,d100,n5,w5,mc2,t8)_inferred
for doc 1231...
Doc2Vec(dm/c,d100,n5,w5,mc2,t8):
 [(1579, 0.9786851406097412), (891, 0.9784471988677979), (1051, 0.9736893773078918)]
Doc2Vec(dbow,d100,n5,mc2,t8):
 [(1290, 0.9905937314033508), (455, 0.9899373054504395), (442, 0.9898963570594788)]
Doc2Vec(dm/m,d100,n5,w10,mc2,t8):
 [(1014, 0.7268387079238892), (186, 0.7238553166389465), (1554, 0.7151049375534058)]
TARGET (108): «Começando com Ângela em a gravidez , que é umas de as partes mais engraçadas , algumas coisas que ela fala e pensa faz todo o sentindo , como você pode estar gorda e feia , mas se você está grávidas todos vão te amar e te achar linda , também tem quando está grávida você não ganha presentes para você e sim para seu bebê .»

SIMILAR/DISSIMILAR DOCS PER MODEL Doc2Vec(dm/m,d100,n5,w10,mc2,t8):

MOST (851, 0.9082715511322021): «Já li várias vezes , e vira e mexe me pego com ele em as mãos novamente .»

MEDIAN (172, 0.4218142628669739): «Com certeza uma obra-prima muito além de o seu tempo , onde o autor teve a sensibilidade e a maestria em antecipar fenômenos hoje presentes em o nosso cotidiano , mas muito sutis em a década de 50 , época de a escrita de o livro .»

LEAST (95, -0.2876527011394501): «Recomendo a qualquer um que desejar um bom livro !»

most similar words for 'incrível' (12 occurences)
