-----------------------tags inferidas-----------------------
[ 1.  0.  1.  1.  0.  1.  1.  1.  1.  1.  1.  1.  1.  1.  1.  1.  1.  1.
  0.  1.  1.  1.  1.  1.  1.  1.  1.  1.  1.  1.  1.  1.  1.  0.  0.  1.
  1.  0.  1.  1.  1.  1.  1.  0.  1.  1.  1.  1.  1.  1.  0.  1.  1.  1.
  1.  1.  1.  0.  1.  1.  1.  0.  1.  1.  1.  1.  1.  1.  0.  1.  1.  1.
  1.  1.  1.  1.  1.  1.  1.  1.  1.  1.  1.  1.  0.  1.  1.  0.  1.  1.
  0.  1.  1.  1.  1.  1.  1.  1.  1.  1.  1.  1.  1.  1.  0.  1.  1.  0.
  0.  1.  1.  1.  1.  1.  1.  1.  1.  1.]
--------------------------------------------------------------
1 | 50 | 51
0 | 8 | 9
 0.508475 : 20 passes : dbow+dmc_inferred 0.0s 1.3s
completed pass 20 at alpha 0.002200
END 2015-11-22 18:02:24.332697
0.440678 Doc2Vec(dbow,d100,n5,mc2,t8)_inferred
0.440678 dbow+dmc_inferred
0.440678 dbow+dmm_inferred
0.457627 dbow+dmc
0.466102 Doc2Vec(dm/c,d100,n5,w5,mc2,t8)
0.466102 Doc2Vec(dm/c,d100,n5,w5,mc2,t8)_inferred
0.474576 Doc2Vec(dbow,d100,n5,mc2,t8)
0.474576 Doc2Vec(dm/m,d100,n5,w10,mc2,t8)_inferred
0.474576 dbow+dmm
0.483051 Doc2Vec(dm/m,d100,n5,w10,mc2,t8)
for doc 1368...
Doc2Vec(dm/c,d100,n5,w5,mc2,t8):
 [(15, 0.38899925351142883), (925, 0.3061847984790802), (7, 0.2825702130794525)]
Doc2Vec(dbow,d100,n5,mc2,t8):
 [(208, 0.9862093329429626), (1052, 0.9850349426269531), (1212, 0.9848872423171997)]
Doc2Vec(dm/m,d100,n5,w10,mc2,t8):
 [(40, 0.8677553534507751), (1038, 0.8669077754020691), (168, 0.8627326488494873)]
TARGET (1188): «Aff»

SIMILAR/DISSIMILAR DOCS PER MODEL Doc2Vec(dbow,d100,n5,mc2,t8):

MOST (1697, 0.9990540146827698): «O enredo pode ser fraco , coisa manjada mesmo .»

MEDIAN (1471, 0.9705499410629272): «Enfim , eu achei ele bem sem graça .»

LEAST (1341, -0.06120617315173149): «Personagens cansativos , previsíveis , a Bella é a menina mais chata e enjoada que já existiu em a literatura .»

most similar words for 'mundo' (46 occurences)
