-----------------------tags inferidas-----------------------
[ 1.  1.  0.  0.  1.  1.  1.  1.  1.  1.  1.  1.  1.  1.  1.  1.  1.  1.
  1.  1.  1.  1.  1.  0.  1.  0.  1.  1.  1.  1.  1.  1.  1.  0.  1.  1.
  1.  1.  1.  1.  1.  1.  1.  1.  1.  1.  1.  1.  1.  1.  1.  1.  1.  1.
  1.  1.  0.  1.  1.  1.  1.  1.  1.  1.  0.  1.  1.  1.  1.  1.  1.  1.
  1.  1.  1.  1.  1.  1.  1.  1.  1.  1.  1.  1.  1.  0.  1.  1.  1.  1.
  0.  1.  1.  1.  1.  1.  1.  1.  0.  1.  1.  1.  1.  1.  1.  1.  1.  1.
  1.  1.  1.  1.  1.  1.  1.  0.  1.  1.  1.  1.  1.  1.  1.  1.  1.  1.
  1.  1.  1.  1.  1.  1.  1.  1.  1.  1.  1.  1.  1.  1.  1.  1.  1.  1.
  1.  1.  1.  1.  1.  1.  1.  1.  1.  1.  1.  1.  1.  1.  1.  1.  0.  1.
  1.  1.  1.  1.  1.  1.  1.  1.  1.  1.  1.  1.  0.  1.  0.  1.  1.  1.
  1.  1.  1.  1.  1.  1.  1.  1.  1.  1.  1.  1.  1.  1.  0.  1.  1.  1.
  1.  1.  1.  1.  1.  1.  1.  1.  1.  0.  1.  1.  1.  1.  1.  1.  1.  1.
  1.  1.  1.  1.  1.  1.  1.  0.  1.  1.  1.  1.  1.  1.  1.  1.  1.  1.
  1.  1.  1.  1.  1.  1.  1.  1.  1.  1.  1.  1.  1.  1.  1.  1.  1.  0.
  1.  1.  1.  1.  1.  1.  1.  1.  1.  1.  1.  1.  1.  1.  1.  1.  1.  1.
  1.  1.  1.  1.  0.  1.  1.  1.  1.  1.  1.  1.  1.  1.  1.  1.  1.  1.
  1.  1.  1.  1.  0.  0.  1.  1.  1.  1.  1.  0.  1.  1.  1.  0.  1.  1.
  1.  1.  1.  1.  1.  1.  1.  1.  1.  0.  1.  1.  1.  0.  1.  0.  1.  1.
  0.  1.  1.  1.  1.  1.  1.  1.  0.  1.  1.  1.  1.  1.  1.  1.  1.  1.
  1.  0.]
--------------------------------------------------------------
*0.197674 : 20 passes : dbow+dmc_inferred 0.0s 7.3s
completed pass 20 at alpha 0.002200
END 2015-11-04 20:36:52.645307
0.142442 Doc2Vec(dm/m,d100,n5,w10,mc2,t8)
0.154070 dbow+dmm
0.159884 dbow+dmc
0.162791 Doc2Vec(dbow,d100,n5,mc2,t8)
0.171512 Doc2Vec(dm/c,d100,n5,w5,mc2,t8)
0.171512 Doc2Vec(dm/c,d100,n5,w5,mc2,t8)_inferred
0.186047 Doc2Vec(dm/m,d100,n5,w10,mc2,t8)_inferred
0.191860 dbow+dmm_inferred
0.197674 dbow+dmc_inferred
0.209302 Doc2Vec(dbow,d100,n5,mc2,t8)_inferred
--------------------------------------------------------------
for doc 1810...
Doc2Vec(dm/c,d100,n5,w5,mc2,t8):
 [(795, 0.9817935228347778), (1092, 0.980230987071991), (2498, 0.9767674803733826)]
Doc2Vec(dbow,d100,n5,mc2,t8):
 [(1810, 0.9587202072143555), (2090, 0.9462626576423645), (425, 0.9408605098724365)]
Doc2Vec(dm/m,d100,n5,w10,mc2,t8):
 [(966, 0.7766874432563782), (2432, 0.7323439717292786), (1733, 0.7194900512695312)]
--------------------------------------------------------------
TARGET (1312): «Logo em as primeiras págimas me apaixonei por o livro , que considero o melhor de Sidney Sheldon .»

SIMILAR/DISSIMILAR DOCS PER MODEL Doc2Vec(dbow,d100,n5,mc2,t8):

MOST (849, 0.9890573620796204): «Ótimo livro , bem diferente de o que eu imaginava .»

MEDIAN (337, 0.8974168300628662): «noossa , personagens incriveis !»

LEAST (1487, -0.11695937067270279): «EXCELENTE»

most similar words for 'parte' (48 occurences)
--------------------------------------------------------------
Confusion Matrix
     pos  | neg
pos  264  | 19
neg   49  | 10

79,65%
