-----------------------tags inferidas-----------------------
[ 1.  1.  1.  1.  1.  1.  1.  1.  1.  1.  1.  1.  1.  1.  0.  1.  1.  1.
  1.  1.  1.  1.  1.  1.  1.  1.  1.  1.  1.  1.  1.  1.  1.  1.  1.  1.
  1.  1.  1.  1.  1.  1.  1.  1.  1.  1.  1.  1.  1.  1.  1.  1.  1.  1.
  1.  1.  1.  1.  1.  1.  1.  1.  1.  0.  1.  1.  1.  1.  0.  1.  1.  1.
  1.  1.  1.  1.  1.  1.  1.  1.  1.  1.  1.  1.  1.  0.  1.  1.  0.  1.
  0.  0.  1.  1.  1.  1.  1.  1.  1.  1.  1.  1.  1.  1.  1.  1.  1.  1.
  1.  1.  1.  0.  1.  0.  1.  1.  1.  1.]
--------------------------------------------------------------
1 | 58 | 51
0 | 8 | 1
*0.440678 : 20 passes : dbow+dmc_inferred 0.0s 2.2s
completed pass 20 at alpha 0.002200
END 2015-11-22 20:09:16.810925
0.432203 Doc2Vec(dbow,d100,n5,mc2,t8)_inferred
0.440678 dbow+dmc_inferred
0.457627 dbow+dmm_inferred
0.466102 Doc2Vec(dm/c,d100,n5,w5,mc2,t8)_inferred
0.474576 Doc2Vec(dm/m,d100,n5,w10,mc2,t8)_inferred
0.491525 dbow+dmm
0.500000 Doc2Vec(dbow,d100,n5,mc2,t8)
0.500000 Doc2Vec(dm/c,d100,n5,w5,mc2,t8)
0.500000 Doc2Vec(dm/m,d100,n5,w10,mc2,t8)
0.500000 dbow+dmc
for doc 2670...
Doc2Vec(dm/c,d100,n5,w5,mc2,t8):
 [(2628, 0.7020431756973267), (90, 0.6917136907577515), (2994, 0.6905211210250854)]
Doc2Vec(dbow,d100,n5,mc2,t8):
 [(2670, 0.9824466705322266), (1299, 0.9810987114906311), (1518, 0.9802470207214355)]
Doc2Vec(dm/m,d100,n5,w10,mc2,t8):
 [(1532, 0.9025739431381226), (3393, 0.896553635597229), (415, 0.8944010734558105)]
TARGET (2927): «Um de os piores erros de a editora !»

SIMILAR/DISSIMILAR DOCS PER MODEL Doc2Vec(dm/c,d100,n5,w5,mc2,t8):

MOST (1657, 0.7151716351509094): «Gostei muito - porém sou suspeita pois , me identifiquei muito com o personagem principal - Holden Caulfield - .»

MEDIAN (1343, 0.03322439268231392): «Ótimo , político , filosófico , romantico e atual .»

LEAST (761, -0.6601997017860413): «Essa historia emocionante , de um romance proibido , que envolve o sobrenatural , e as dádivas de um primeiro amor e que mistura romance e ficção em uma combinação perfeita .»

most similar words for 'o' (2483 occurences)
