0.058824 Doc2Vec(dbow,d100,n5,mc2,t8)_inferred
0.058824 Doc2Vec(dm/c,d100,n5,w5,mc2,t8)_inferred
0.058824 Doc2Vec(dm/m,d100,n5,w10,mc2,t8)_inferred
0.088235 dbow+dmm_inferred
0.148256 dbow+dmm
0.154070 dbow+dmc
0.156977 Doc2Vec(dm/m,d100,n5,w10,mc2,t8)
0.165698 Doc2Vec(dbow,d100,n5,mc2,t8)
0.171512 Doc2Vec(dm/c,d100,n5,w5,mc2,t8)
0.176471 dbow+dmc_inferred
for doc 983...
Doc2Vec(dm/c,d100,n5,w5,mc2,t8):
 [(599, 0.8362413644790649), (2278, 0.8290809392929077), (227, 0.8119946718215942)]
Doc2Vec(dbow,d100,n5,mc2,t8):
 [(983, 0.9565094113349915), (511, 0.9536278247833252), (2613, 0.9491131901741028)]
Doc2Vec(dm/m,d100,n5,w10,mc2,t8):
 [(309, 0.7366319894790649), (2615, 0.700075626373291), (176, 0.6939029097557068)]
TARGET (2169): «] recomendo muito !»

SIMILAR/DISSIMILAR DOCS PER MODEL Doc2Vec(dm/m,d100,n5,w10,mc2,t8):

MOST (2630, 0.933380663394928): «Um começo empolgante , porém vai perdendo o ritmo o que o torna fraco , além de ser muito parado quase nada acontece as situações são mal descritas por a autora as vezes ela se perde em as descrições .»

MEDIAN (2068, 0.5215192437171936): «A trama de este livro é simplesmente excelente , não é um livro previsível e o final é surpeendente .»

LEAST (2587, -0.2911469042301178): «O ritmo de a história é um tanto quanto inconsistente , em o geral é tudo meio lento e talvez por o volume de texto tem - se a impressão de que a coisa não está evoluindo .»

most similar words for 'fazer' (35 occurences)
