\relax 
\providecommand\hyper@newdestlabel[2]{}
\providecommand\BKM@entry[2]{}
\providecommand\zref@newlabel[2]{}
\providecommand*{\memsetcounter}[2]{}
\providecommand\HyperFirstAtBeginDocument{\AtBeginDocument}
\HyperFirstAtBeginDocument{\ifx\hyper@anchor\@undefined
\global\let\oldcontentsline\contentsline
\gdef\contentsline#1#2#3#4{\oldcontentsline{#1}{#2}{#3}}
\global\let\oldnewlabel\newlabel
\gdef\newlabel#1#2{\newlabelxx{#1}#2}
\gdef\newlabelxx#1#2#3#4#5#6{\oldnewlabel{#1}{{#2}{#3}}}
\AtEndDocument{\ifx\hyper@anchor\@undefined
\let\contentsline\oldcontentsline
\let\newlabel\oldnewlabel
\fi}
\fi}
\global\let\hyper@last\relax 
\gdef\HyperFirstAtBeginDocument#1{#1}
\providecommand\HyField@AuxAddToFields[1]{}
\providecommand\HyField@AuxAddToCoFields[2]{}
\catcode `"\active 
\citation{abnt-url-package=url}
\providecommand\acro@used@once[4]{}
\providecommand\acro@used@twice[4]{}
\providecommand\acro@pages[2]{}
\@writefile{toc}{\changetocdepth  {4}}
\select@language{brazil}
\@writefile{toc}{\select@language{brazil}}
\@writefile{lof}{\select@language{brazil}}
\@writefile{lot}{\select@language{brazil}}
\BKM@entry{id=1,dest={6368617074657262312E30},srcline={221}}{466F6C686120646520726F73746F}
\BKM@entry{id=2,dest={6368617074657262322E30},srcline={14}}{466F6C6861206465206170726F76615C3334375C3334336F}
\BKM@entry{id=3,dest={6368617074657262332E30},srcline={2}}{526573756D6F}
\citation{DBLP:journals/corr/LeM14}
\@writefile{brf}{\backcite{DBLP:journals/corr/LeM14}{{5}{(document)}{Doc-Start}}}
\BKM@entry{id=4,dest={6368617074657262342E30},srcline={1}}{4162737472616374}
\citation{DBLP:journals/corr/LeM14}
\@writefile{brf}{\backcite{DBLP:journals/corr/LeM14}{{7}{(document)}{Doc-Start}}}
\BKM@entry{id=5,dest={6C6F662E30},srcline={261}}{4C6973746120646520696C75737472615C3334375C3336356573}
\@writefile{toc}{\setlength  {\cftchapterindent }{\cftlastnumwidth } \setlength  {\cftchapternumwidth }{2em}}
\BKM@entry{id=6,dest={6C6F742E30},srcline={266}}{4C6973746120646520746162656C6173}
\citation{socher2013recursive}
\citation{Wang:2012:BBS:2390665.2390688}
\@writefile{toc}{\setlength  {\cftchapterindent }{\cftlastnumwidth } \setlength  {\cftchapternumwidth }{2em}}
\@writefile{brf}{\backcite{socher2013recursive}{{11}{(document)}{Doc-Start}}}
\@writefile{brf}{\backcite{Wang:2012:BBS:2390665.2390688}{{11}{(document)}{Doc-Start}}}
\BKM@entry{id=7,dest={746F632E30},srcline={292}}{53756D5C33343172696F}
\@writefile{toc}{\setlength  {\cftchapterindent }{\cftlastnumwidth } \setlength  {\cftchapternumwidth }{2em}}
\BKM@entry{id=8,dest={636861707465722E31},srcline={2}}{496E74726F64755C3334375C3334336F}
\citation{DBLP:journals/corr/LeM14}
\citation{Brum2015}
\citation{freitas2012vampiro}
\citation{Brum2015}
\citation{DBLP:journals/corr/LeM14}
\citation{Brum2015}
\@writefile{toc}{\setlength  {\cftchapterindent }{0em} \setlength  {\cftchapternumwidth }{\cftlastnumwidth }}
\@writefile{toc}{\contentsline {chapter}{\chapternumberline {1}\MakeTextUppercase  {Introdu\IeC {\c c}\IeC {\~a}o}}{15}{chapter.1}}
\newlabel{introducao}{{1}{15}{Introdução}{chapter.1}{}}
\@writefile{brf}{\backcite{DBLP:journals/corr/LeM14}{{15}{1}{chapter.1}}}
\@writefile{brf}{\backcite{Brum2015}{{15}{1}{chapter.1}}}
\@writefile{brf}{\backcite{freitas2012vampiro}{{15}{1}{chapter.1}}}
\@writefile{brf}{\backcite{Brum2015}{{15}{1}{chapter.1}}}
\@writefile{brf}{\backcite{DBLP:journals/corr/LeM14}{{15}{1}{chapter.1}}}
\@writefile{brf}{\backcite{Brum2015}{{15}{1}{chapter.1}}}
\BKM@entry{id=9,dest={636861707465722E32},srcline={2}}{46756E64616D656E74615C3334375C3334336F2054655C33363372696361}
\BKM@entry{id=10,dest={73656374696F6E2E322E31},srcline={7}}{4D6F64656C6167656D204261672D6F662D576F726473}
\citation{alves2010modelo}
\@writefile{toc}{\setlength  {\cftchapterindent }{0em} \setlength  {\cftchapternumwidth }{\cftlastnumwidth }}
\@writefile{toc}{\contentsline {chapter}{\chapternumberline {2}\MakeTextUppercase  {Fundamenta\IeC {\c c}\IeC {\~a}o Te\IeC {\'o}rica}}{17}{chapter.2}}
\newlabel{fundamentacao}{{2}{17}{Fundamentação Teórica}{chapter.2}{}}
\@writefile{toc}{\contentsline {section}{\numberline {2.1}Modelagem Bag-of-Words}{17}{section.2.1}}
\@writefile{brf}{\backcite{alves2010modelo}{{17}{2.1}{section.2.1}}}
\citation{DBLP:journals/corr/LeM14}
\BKM@entry{id=11,dest={73656374696F6E2E322E32},srcline={66}}{4D6F64656C6167656D204E2D6772616D61}
\citation{gasperin2000fundamentos}
\@writefile{lot}{\contentsline {table}{\numberline {1}{\ignorespaces Vetores de Frequ\IeC {\^e}ncia de Palavras em um Documento utilizando BOW}}{18}{table.2.1}}
\newlabel{tabVetores}{{1}{18}{Vetores de Frequência de Palavras em um Documento utilizando BOW}{table.2.1}{}}
\@writefile{brf}{\backcite{DBLP:journals/corr/LeM14}{{18}{2.1}{table.2.1}}}
\@writefile{toc}{\contentsline {section}{\numberline {2.2}Modelagem N-grama}{18}{section.2.2}}
\@writefile{brf}{\backcite{gasperin2000fundamentos}{{18}{2.2}{section.2.2}}}
\BKM@entry{id=12,dest={73756273656374696F6E2E322E322E31},srcline={89}}{4D6F64656C6167656D20536B69702D6772616D61}
\citation{guthrie2006closer}
\@writefile{toc}{\contentsline {subsection}{\numberline {2.2.1}Modelagem Skip-grama}{19}{subsection.2.2.1}}
\@writefile{brf}{\backcite{guthrie2006closer}{{19}{2.2.1}{subsection.2.2.1}}}
\BKM@entry{id=13,dest={73656374696F6E2E322E33},srcline={115}}{416C676F7269746D6F20576F726420566563746F72}
\citation{socher2013recursive}
\citation{NIPS2013_5021}
\@writefile{toc}{\contentsline {section}{\numberline {2.3}Algoritmo Word Vector}{20}{section.2.3}}
\citation{DBLP:journals/corr/LeM14}
\citation{DBLP:journals/corr/LeM14}
\BKM@entry{id=14,dest={73656374696F6E2E322E34},srcline={130}}{416C676F7269746D6F2050617261677261706820566563746F72}
\citation{DBLP:journals/corr/LeM14}
\@writefile{brf}{\backcite{socher2013recursive}{{21}{2.3}{section.2.3}}}
\@writefile{brf}{\backcite{NIPS2013_5021}{{21}{2.3}{section.2.3}}}
\@writefile{lof}{\contentsline {figure}{\numberline {1}{\ignorespaces Framework para aprendizado do Word Vector}}{21}{figure.2.1}}
\newlabel{figWordVector}{{1}{21}{Framework para aprendizado do Word Vector}{figure.2.1}{}}
\@writefile{brf}{\backcite{DBLP:journals/corr/LeM14}{{21}{1}{figure.2.1}}}
\@writefile{toc}{\contentsline {section}{\numberline {2.4}Algoritmo Paragraph Vector}{21}{section.2.4}}
\@writefile{brf}{\backcite{DBLP:journals/corr/LeM14}{{21}{2.4}{section.2.4}}}
\citation{DBLP:journals/corr/LeM14}
\citation{DBLP:journals/corr/LeM14}
\citation{DBLP:journals/corr/LeM14}
\citation{DBLP:journals/corr/LeM14}
\citation{DBLP:journals/corr/LeM14}
\BKM@entry{id=15,dest={73656374696F6E2E322E35},srcline={153}}{54726162616C686F732052656C6163696F6E61646F73}
\citation{DBLP:journals/corr/LeM14}
\@writefile{lof}{\contentsline {figure}{\numberline {2}{\ignorespaces Framework para aprendizado do Paragraph Vector}}{22}{figure.2.2}}
\newlabel{figParagraphVector1}{{2}{22}{Framework para aprendizado do Paragraph Vector}{figure.2.2}{}}
\@writefile{brf}{\backcite{DBLP:journals/corr/LeM14}{{22}{2}{figure.2.2}}}
\@writefile{brf}{\backcite{DBLP:journals/corr/LeM14}{{22}{2.4}{figure.2.2}}}
\@writefile{lof}{\contentsline {figure}{\numberline {3}{\ignorespaces Vers\IeC {\~a}o BOW distribu\IeC {\'\i }do do Paragraph Vector.}}{22}{figure.2.3}}
\newlabel{figParagraphVector2}{{3}{22}{Versão BOW distribuído do Paragraph Vector}{figure.2.3}{}}
\@writefile{brf}{\backcite{DBLP:journals/corr/LeM14}{{22}{3}{figure.2.3}}}
\citation{socher2013recursive}
\citation{socher2013recursive}
\citation{DBLP:journals/corr/LeM14}
\citation{DBLP:journals/corr/LeM14}
\citation{Maas:2011:LWV:2002472.2002491}
\citation{Wang:2012:BBS:2390665.2390688}
\citation{Wang:2012:BBS:2390665.2390688}
\citation{DBLP:journals/corr/LeM14}
\citation{DBLP:journals/corr/LeM14}
\citation{Brum2015}
\citation{socher2013recursive}
\citation{freitas2012vampiro}
\citation{Brum2015}
\@writefile{toc}{\contentsline {section}{\numberline {2.5}Trabalhos Relacionados}{23}{section.2.5}}
\@writefile{brf}{\backcite{DBLP:journals/corr/LeM14}{{23}{2.5}{section.2.5}}}
\@writefile{lot}{\contentsline {table}{\numberline {2}{\ignorespaces Performance do Paragraph Vector comparado a outras abordagens no dataset Treebank de Sentimento de Stanford. As taxas de erros de outros m\IeC {\'e}todos est\IeC {\~a}o reportadas em \cite  {socher2013recursive}}}{23}{table.2.2}}
\@writefile{brf}{\backcite{socher2013recursive}{{23}{2}{table.2.2}}}
\newlabel{tabParagraphVector1}{{2}{23}{Performance do Paragraph Vector comparado a outras abordagens no dataset Treebank de Sentimento de Stanford. As taxas de erros de outros métodos estão reportadas em \cite {socher2013recursive}}{table.2.2}{}}
\@writefile{brf}{\backcite{DBLP:journals/corr/LeM14}{{23}{2}{table.2.2}}}
\@writefile{brf}{\backcite{Maas:2011:LWV:2002472.2002491}{{23}{2.5}{table.2.2}}}
\@writefile{lot}{\contentsline {table}{\numberline {3}{\ignorespaces Performance do Paragraph Vector comparado a outras abordagens no dataset do IMDB reportados por \cite  {Wang:2012:BBS:2390665.2390688}}}{24}{table.2.3}}
\@writefile{brf}{\backcite{Wang:2012:BBS:2390665.2390688}{{24}{3}{table.2.3}}}
\newlabel{tabParagraphVector2}{{3}{24}{Performance do Paragraph Vector comparado a outras abordagens no dataset do IMDB reportados por \cite {Wang:2012:BBS:2390665.2390688}}{table.2.3}{}}
\@writefile{brf}{\backcite{DBLP:journals/corr/LeM14}{{24}{3}{table.2.3}}}
\@writefile{brf}{\backcite{Brum2015}{{24}{2.5}{table.2.3}}}
\@writefile{brf}{\backcite{socher2013recursive}{{24}{2.5}{table.2.3}}}
\@writefile{brf}{\backcite{freitas2012vampiro}{{24}{2.5}{table.2.3}}}
\@writefile{brf}{\backcite{Brum2015}{{24}{2.5}{table.2.3}}}
\BKM@entry{id=16,dest={636861707465722E33},srcline={2}}{416E5C3334316C6973652064652053656E74696D656E746F20636F6D206F2050617261677261706820566563746F72}
\citation{DBLP:journals/corr/LeM14}
\citation{DBLP:journals/corr/LeM14}
\BKM@entry{id=17,dest={73656374696F6E2E332E31},srcline={10}}{5265637572736F73}
\citation{DBLP:journals/corr/LeM14}
\citation{Brum2015}
\citation{Brum2015}
\@writefile{toc}{\setlength  {\cftchapterindent }{0em} \setlength  {\cftchapternumwidth }{\cftlastnumwidth }}
\@writefile{toc}{\contentsline {chapter}{\chapternumberline {3}\MakeTextUppercase  {An\IeC {\'a}lise de Sentimento com o Paragraph Vector}}{25}{chapter.3}}
\newlabel{analise_sentimento}{{3}{25}{Análise de Sentimento com o Paragraph Vector}{chapter.3}{}}
\@writefile{brf}{\backcite{DBLP:journals/corr/LeM14}{{25}{3}{chapter.3}}}
\@writefile{brf}{\backcite{DBLP:journals/corr/LeM14}{{25}{3}{chapter.3}}}
\@writefile{toc}{\contentsline {section}{\numberline {3.1}Recursos}{25}{section.3.1}}
\@writefile{brf}{\backcite{DBLP:journals/corr/LeM14}{{25}{3.1}{section.3.1}}}
\@writefile{brf}{\backcite{Brum2015}{{25}{3.1}{section.3.1}}}
\BKM@entry{id=18,dest={73656374696F6E2E332E32},srcline={18}}{4578706572696D656E746F73206520526573756C7461646F73}
\citation{Brum2015}
\citation{Brum2015}
\citation{kohavi1995study}
\citation{braga2004cross}
\@writefile{brf}{\backcite{Brum2015}{{26}{3.1}{section.3.1}}}
\@writefile{toc}{\contentsline {section}{\numberline {3.2}Experimentos e Resultados}{26}{section.3.2}}
\@writefile{brf}{\backcite{Brum2015}{{26}{3.2}{section.3.2}}}
\@writefile{brf}{\backcite{Brum2015}{{26}{3.2}{section.3.2}}}
\@writefile{brf}{\backcite{kohavi1995study}{{26}{3.2}{section.3.2}}}
\@writefile{brf}{\backcite{braga2004cross}{{26}{3.2}{section.3.2}}}
\@writefile{lot}{\contentsline {table}{\numberline {4}{\ignorespaces Matriz de Confus\IeC {\~a}o}}{26}{table.3.4}}
\newlabel{matriz_confusao}{{4}{26}{Matriz de Confusão}{table.3.4}{}}
\@writefile{lot}{\contentsline {table}{\numberline {5}{\ignorespaces M\IeC {\'e}dia dos valores das Matrizes de Confus\IeC {\~a}o para o ReLi v1}}{27}{table.3.5}}
\newlabel{matriz_media_reli_v1}{{5}{27}{Média dos valores das Matrizes de Confusão para o ReLi v1}{table.3.5}{}}
\@writefile{lot}{\contentsline {table}{\numberline {6}{\ignorespaces M\IeC {\'e}dia dos valores das Matrizes de Confus\IeC {\~a}o para o ReLi v2}}{27}{table.3.6}}
\newlabel{matriz_media_reli_v2}{{6}{27}{Média dos valores das Matrizes de Confusão para o ReLi v2}{table.3.6}{}}
\@writefile{lot}{\contentsline {table}{\numberline {7}{\ignorespaces M\IeC {\'e}dia dos valores das Matrizes de Confus\IeC {\~a}o para o ReLi v3}}{27}{table.3.7}}
\newlabel{matriz_media_reli_v3}{{7}{27}{Média dos valores das Matrizes de Confusão para o ReLi v3}{table.3.7}{}}
\citation{Brum2015}
\citation{Brum2015}
\citation{Brum2015}
\@writefile{lot}{\contentsline {table}{\numberline {8}{\ignorespaces M\IeC {\'e}dia dos valores das Matrizes de Confus\IeC {\~a}o para o ReLi v4}}{28}{table.3.8}}
\newlabel{matriz_media_reli_v4}{{8}{28}{Média dos valores das Matrizes de Confusão para o ReLi v4}{table.3.8}{}}
\@writefile{lot}{\contentsline {table}{\numberline {9}{\ignorespaces Vers\IeC {\~o}es do c\IeC {\'o}rpus ReLi}}{28}{table.3.9}}
\newlabel{tabReli}{{9}{28}{Versões do córpus ReLi}{table.3.9}{}}
\@writefile{brf}{\backcite{Brum2015}{{28}{3.2}{table.3.9}}}
\@writefile{lot}{\contentsline {table}{\numberline {10}{\ignorespaces M\IeC {\'e}dia das acur\IeC {\'a}cias}}{28}{table.3.10}}
\newlabel{tabResultados}{{10}{28}{Média das acurácias}{table.3.10}{}}
\@writefile{brf}{\backcite{Brum2015}{{29}{3.2}{table.3.10}}}
\@writefile{brf}{\backcite{Brum2015}{{29}{3.2}{table.3.10}}}
\BKM@entry{id=19,dest={636861707465722E34},srcline={2}}{446973637573735C33363565732046696E616973}
\citation{DBLP:journals/corr/LeM14}
\citation{Brum2015}
\citation{Brum2015}
\citation{DBLP:journals/corr/LeM14}
\citation{Brum2015}
\bibdata{abntex2-options,bibliografia}
\@writefile{toc}{\setlength  {\cftchapterindent }{0em} \setlength  {\cftchapternumwidth }{\cftlastnumwidth }}
\@writefile{toc}{\contentsline {chapter}{\chapternumberline {4}\MakeTextUppercase  {Discuss\IeC {\~o}es Finais}}{31}{chapter.4}}
\newlabel{discussoes}{{4}{31}{Discussões Finais}{chapter.4}{}}
\@writefile{brf}{\backcite{DBLP:journals/corr/LeM14}{{31}{4}{chapter.4}}}
\@writefile{brf}{\backcite{Brum2015}{{31}{4}{chapter.4}}}
\@writefile{brf}{\backcite{Brum2015}{{31}{4}{chapter.4}}}
\@writefile{brf}{\backcite{DBLP:journals/corr/LeM14}{{31}{4}{chapter.4}}}
\@writefile{brf}{\backcite{Brum2015}{{31}{4}{chapter.4}}}
\@writefile{toc}{\vspace  {\cftbeforechapterskip }}
\BKM@entry{id=20,dest={73656374696F6E2A2E37},srcline={3}}{52656665725C3335326E63696173}
\bibcite{alves2010modelo}{Alves 2010}
\bibciteEXPL{alves2010modelo}{Alves}
\bibciteIMPL{alves2010modelo}{ALVES}
\bibciteYEAR{alves2010modelo}{2010}
\bibcite{braga2004cross}{Braga-Neto e Dougherty 2004}
\bibciteEXPL{braga2004cross}{Braga-Neto e Dougherty}
\bibciteIMPL{braga2004cross}{BRAGA-NETO; DOUGHERTY}
\bibciteYEAR{braga2004cross}{2004}
\bibcite{Brum2015}{Brum 2015}
\bibciteEXPL{Brum2015}{Brum}
\bibciteIMPL{Brum2015}{BRUM}
\bibciteYEAR{Brum2015}{2015}
\bibcite{freitas2012vampiro}{Freitas et al. 2012}
\bibciteEXPL{freitas2012vampiro}{Freitas et al.}
\bibciteIMPL{freitas2012vampiro}{FREITAS et al.}
\bibciteYEAR{freitas2012vampiro}{2012}
\bibcite{gasperin2000fundamentos}{Gasperin e Lima 2000}
\bibciteEXPL{gasperin2000fundamentos}{Gasperin e Lima}
\bibciteIMPL{gasperin2000fundamentos}{GASPERIN; LIMA}
\bibciteYEAR{gasperin2000fundamentos}{2000}
\bibcite{guthrie2006closer}{Guthrie et al. 2006}
\bibciteEXPL{guthrie2006closer}{Guthrie et al.}
\bibciteIMPL{guthrie2006closer}{GUTHRIE et al.}
\bibciteYEAR{guthrie2006closer}{2006}
\bibcite{kohavi1995study}{Kohavi et al. 1995}
\bibciteEXPL{kohavi1995study}{Kohavi et al.}
\bibciteIMPL{kohavi1995study}{KOHAVI et al.}
\bibciteYEAR{kohavi1995study}{1995}
\bibcite{DBLP:journals/corr/LeM14}{Le e Mikolov 2014}
\bibciteEXPL{DBLP:journals/corr/LeM14}{Le e Mikolov}
\bibciteIMPL{DBLP:journals/corr/LeM14}{LE; MIKOLOV}
\bibciteYEAR{DBLP:journals/corr/LeM14}{2014}
\bibcite{Maas:2011:LWV:2002472.2002491}{Maas et al. 2011}
\bibciteEXPL{Maas:2011:LWV:2002472.2002491}{Maas et al.}
\bibciteIMPL{Maas:2011:LWV:2002472.2002491}{MAAS et al.}
\bibciteYEAR{Maas:2011:LWV:2002472.2002491}{2011}
\bibcite{NIPS2013_5021}{Mikolov et al. 2013}
\bibciteEXPL{NIPS2013_5021}{Mikolov et al.}
\bibciteIMPL{NIPS2013_5021}{MIKOLOV et al.}
\bibciteYEAR{NIPS2013_5021}{2013}
\bibcite{rino2003sumarizaccao}{Rino e Pardo 2003}
\bibciteEXPL{rino2003sumarizaccao}{Rino e Pardo}
\bibciteIMPL{rino2003sumarizaccao}{RINO; PARDO}
\bibciteYEAR{rino2003sumarizaccao}{2003}
\@writefile{toc}{\setlength  {\cftchapterindent }{\cftlastnumwidth } \setlength  {\cftchapternumwidth }{2em}}
\@writefile{toc}{\contentsline {chapter}{Refer\^encias}{33}{section*.7}}
\bibcite{Socher:2012:SCT:2390948.2391084}{Socher et al. 2012}
\bibciteEXPL{Socher:2012:SCT:2390948.2391084}{Socher et al.}
\bibciteIMPL{Socher:2012:SCT:2390948.2391084}{SOCHER et al.}
\bibciteYEAR{Socher:2012:SCT:2390948.2391084}{2012}
\bibcite{socher2013recursive}{Socher et al. 2013}
\bibciteEXPL{socher2013recursive}{Socher et al.}
\bibciteIMPL{socher2013recursive}{SOCHER et al.}
\bibciteYEAR{socher2013recursive}{2013}
\bibcite{villavicencio2010identificaccao}{Villavicencio et al. 2010}
\bibciteEXPL{villavicencio2010identificaccao}{Villavicencio et al.}
\bibciteIMPL{villavicencio2010identificaccao}{VILLAVICENCIO et al.}
\bibciteYEAR{villavicencio2010identificaccao}{2010}
\bibcite{Wang:2012:BBS:2390665.2390688}{Wang e Manning 2012}
\bibciteEXPL{Wang:2012:BBS:2390665.2390688}{Wang e Manning}
\bibciteIMPL{Wang:2012:BBS:2390665.2390688}{WANG; MANNING}
\bibciteYEAR{Wang:2012:BBS:2390665.2390688}{2012}
\newlabel{LastPage}{{}{34}{}{page.34}{}}
\xdef\lastpage@lastpage{34}
\xdef\lastpage@lastpageHy{34}
\bibstyle{abntex2-alf}
\memsetcounter{lastsheet}{36}
\memsetcounter{lastpage}{34}
