-----------------------tags inferidas-----------------------
[ 0.  1.  0.  1.  0.  0.  1.  1.  1.  0.  1.  0.  1.  0.  0.  0.  1.  0.
  0.  0.  0.  1.  1.  0.  0.  0.  1.  1.  1.  0.  0.  1.  1.  1.  1.  0.
  1.  1.  0.  1.  0.  0.  1.  0.  1.  1.  0.  0.  1.  0.  0.  1.  0.  0.
  1.  1.  1.  0.  0.  0.  1.  1.  1.  0.  1.  1.  1.  1.  0.  1.  1.  1.
  0.  0.  1.  1.  0.  1.  0.  0.  1.  1.  0.  0.  0.  0.  1.  1.  1.  1.
  1.  1.  1.  0.  1.  1.  0.  1.  0.  1.  1.  1.  0.  0.  0.  0.  1.  0.
  1.  1.  0.  0.  1.  1.  0.  0.  0.  1.  1.  1.  1.  0.  1.  0.  0.  0.
  1.  0.  1.  1.  0.  0.  1.  0.  0.  1.  1.  1.  1.  0.  1.  1.  1.  0.
  1.  0.  1.  0.  1.  0.  0.  0.  0.  1.  0.  0.  0.  1.  1.  0.  1.  0.
  0.  0.  1.  1.  0.  1.  1.  1.  1.  1.  0.  0.  0.  1.  1.  0.  1.  1.
  1.  0.  1.  1.  1.  1.  1.  0.  1.  1.  1.  1.  1.  0.  1.  1.  1.  0.
  1.  0.  1.  1.  1.  1.  0.  0.  1.  1.  1.  1.  1.  0.  1.  0.  0.  1.
  1.  1.  0.  1.  0.  0.  1.  1.  1.  1.  1.  0.  1.  0.  1.  0.  1.  0.
  1.  0.  0.  1.  1.  1.  1.  1.  1.  1.  0.  0.  1.  1.  1.  1.  0.  1.
  1.  1.  1.  0.  1.  1.  0.  0.  1.  1.  0.  1.  1.  1.  0.  0.  1.  0.
  1.  0.  1.  0.  0.  0.  0.  1.  0.  0.  0.  0.  0.  0.  0.  1.  1.  0.
  0.  0.  0.  1.  0.  0.  0.  0.  1.  0.  0.  0.  0.  0.  0.  0.  0.  0.
  0.  0.  0.  0.  0.  0.  1.  0.  0.  0.  1.  1.  0.  0.  1.  0.  0.  0.
  0.  0.  0.  0.  0.  0.  0.  0.  1.  0.  0.  0.  0.  0.  0.  0.  0.  1.
  1.  0.  0.  0.  1.  0.  0.  1.  0.  0.  1.  0.  1.  0.  0.  0.  0.  0.
  1.  0.  0.  0.  1.  0.  1.  0.  0.  0.  0.  0.  1.  0.  0.  0.  0.  1.
  0.  0.  0.  0.  0.  0.  0.  0.  1.  0.  0.  0.  0.  0.  0.  0.  0.  0.
  0.  1.  0.  0.  0.  0.  0.  0.  1.  0.  1.  1.  0.  0.  0.  1.  0.  0.
  0.  0.  0.  0.  0.  0.  0.  1.  1.  1.  0.  1.  0.  0.  0.  0.  0.  0.
  0.  0.  0.  1.  0.  1.  1.  0.  0.  1.  0.  0.  0.  0.  0.  0.  0.  0.
  1.  1.  0.  1.  1.  0.  0.  0.  1.  0.  0.  0.  1.  1.  0.  0.  0.  1.
  1.  0.  1.  0.  0.  1.  1.  0.  1.  0.  0.  0.  0.  0.  0.  0.  0.  0.
  0.  0.  0.  0.  0.  0.  0.  0.  1.  0.  0.  0.  1.  1.  0.  0.  1.  0.
  0.  0.  1.  0.  1.  0.  0.  0.  0.  1.  0.  0.  0.  0.  0.  0.  0.  0.
  0.  0.  0.  0.  0.  1.  0.  1.  1.  0.  0.  1.  0.  0.  0.  0.  0.  0.
  0.  0.  0.  0.  0.  0.  0.  0.  0.  0.  0.  1.  0.  0.  0.  0.]
--------------------------------------------------------------
1 | 159 | 59 
0 | 219 | 119 
*0.320144 : 20 passes : dbow+dmc_inferred 0.0s 3.3s
completed pass 20 at alpha 0.002200
END 2015-12-15 16:11:02.715398
0.264388 dbow+dmm
0.267986 Doc2Vec(dm/c,d100,n5,w5,mc2,t8)
0.289568 dbow+dmc
0.307554 dbow+dmm_inferred
0.314748 Doc2Vec(dm/c,d100,n5,w5,mc2,t8)_inferred
0.320144 dbow+dmc_inferred
0.327338 Doc2Vec(dm/m,d100,n5,w10,mc2,t8)
0.330935 Doc2Vec(dm/m,d100,n5,w10,mc2,t8)_inferred
0.366906 Doc2Vec(dbow,d100,n5,mc2,t8)
0.377698 Doc2Vec(dbow,d100,n5,mc2,t8)_inferred
for doc 3053...
Doc2Vec(dm/c,d100,n5,w5,mc2,t8):
 [(681, 0.8507756590843201), (1387, 0.8353678584098816), (1620, 0.8287941217422485)]
Doc2Vec(dbow,d100,n5,mc2,t8):
 [(4211, 0.9321112632751465), (4790, 0.930866003036499), (5300, 0.9265494346618652)]
Doc2Vec(dm/m,d100,n5,w10,mc2,t8):
 [(585, 0.8288602232933044), (1277, 0.8262973427772522), (1963, 0.8256356716156006)]
TARGET (3063): «Há um episódio de um jogo de xadrez entre uma moça , que nada sabia de o jogo , e os dois maiores jogadores de o mundo ; há empate de as duas partidas .»

SIMILAR/DISSIMILAR DOCS PER MODEL Doc2Vec(dm/m,d100,n5,w10,mc2,t8):

MOST (3642, 0.9454144835472107): «Olivro se torna muito previsivel e a linguagem é muito pobre ...»

MEDIAN (2183, 0.3628197908401489): «Sou fã número um de Sidney Sheldon ... o primeiro livro que li foi '' O outro lado de a meia noite '' ... li umas 10 vezes , em o mínimo !»

LEAST (2310, -0.45013365149497986): «Já livros bons , livros ótimos , mas Se Houver Amanhã é imcomparável .»

most similar words for 'Fala' (38 occurences)
