-----------------------tags inferidas-----------------------
[ 1.  1.  1.  1.  1.  0.  1.  1.  1.  1.  0.  1.  0.  1.  1.  1.  1.  1.
  1.  1.  1.  1.  1.  1.  1.  1.  1.  1.  1.  1.  1.  1.  1.  1.  1.  1.
  1.  1.  1.  1.  1.  0.  1.  1.  1.  1.  1.  1.  1.  1.  1.  1.  1.  1.
  1.  1.  1.  1.  0.  1.  1.  1.  1.  1.  0.  1.  1.  1.  0.  1.  0.  1.
  1.  0.  1.  1.  1.  1.  1.  1.  1.  1.  1.  0.  1.  1.  1.  0.  1.  0.
  1.  0.  1.  0.  0.  1.  1.  1.  1.  1.  1.  1.  1.  1.  1.  1.  0.  0.
  1.  1.  1.  0.  1.  1.  1.  0.  1.  1.]
--------------------------------------------------------------
1 | 54 | 45
0 | 14 | 5
 0.423729 : 20 passes : dbow+dmc_inferred 0.0s 1.3s
completed pass 20 at alpha 0.002200
END 2015-11-22 18:25:02.354519
0.415254 dbow+dmc_inferred
0.415254 dbow+dmm_inferred
0.423729 Doc2Vec(dbow,d100,n5,mc2,t8)_inferred
0.423729 Doc2Vec(dm/m,d100,n5,w10,mc2,t8)_inferred
0.449153 dbow+dmm
0.457627 Doc2Vec(dm/m,d100,n5,w10,mc2,t8)
0.474576 Doc2Vec(dbow,d100,n5,mc2,t8)
0.474576 Doc2Vec(dm/c,d100,n5,w5,mc2,t8)_inferred
0.474576 dbow+dmc
0.500000 Doc2Vec(dm/c,d100,n5,w5,mc2,t8)
for doc 31...
Doc2Vec(dm/c,d100,n5,w5,mc2,t8):
 [(1631, 0.9001567363739014), (101, 0.8640132546424866), (487, 0.8604018688201904)]
Doc2Vec(dbow,d100,n5,mc2,t8):
 [(776, 0.9677329659461975), (1075, 0.9671252965927124), (31, 0.9666880965232849)]
Doc2Vec(dm/m,d100,n5,w10,mc2,t8):
 [(31, 0.7909982800483704), (786, 0.7659543752670288), (936, 0.7478072047233582)]
TARGET (780): «Apaixonante !»

SIMILAR/DISSIMILAR DOCS PER MODEL Doc2Vec(dm/c,d100,n5,w5,mc2,t8):

MOST (1566, 0.29571786522865295): «Li por ler , emprestado de um amigo .»

MEDIAN (997, 0.006789121776819229): «Isso pode estragar um pouco a história , mas para mim , não fez muita diferença .»

LEAST (555, -0.24179372191429138): «Viciante !»

most similar words for 'autora' (26 occurences)
