-----------------------tags inferidas-----------------------
[ 1.  1.  1.  1.  1.  0.  1.  1.  1.  1.  1.  1.  1.  1.  1.  1.  1.  1.
  0.  1.  1.  1.  0.  1.  1.  1.  1.  1.  1.  1.  1.  1.  1.  1.  1.  1.
  1.  1.  1.  1.  1.  1.  1.  0.  1.  1.  1.  1.  1.  1.  1.  1.  1.  1.
  1.  1.  1.  0.  1.  1.  1.  1.  1.  1.  1.  1.  1.  0.  1.  0.  0.  1.
  1.  1.  1.  1.  1.  1.  1.  1.  1.  1.  1.  1.  1.  1.  1.  1.  1.  0.
  1.  1.  1.  1.  1.  1.  1.  1.  1.  1.  1.  1.  1.  1.  1.  1.  1.  1.
  1.  1.  1.  1.  1.  1.  1.  1.  1.  1.  1.  1.  1.  1.  1.  1.  1.  1.
  1.  1.  0.  1.  1.  1.  1.  0.  1.  1.  1.  1.  1.  1.  1.  1.  1.  1.
  1.  1.  1.  1.  1.  1.  1.  1.  1.  1.  1.  1.  1.  1.  1.  1.  1.  1.
  1.  1.  1.  1.  1.  1.  1.  1.  1.  1.  1.  1.  1.  0.  1.  1.  1.  1.
  1.  1.  1.  1.  1.  1.  1.  1.  1.  1.  1.  1.  1.  1.  1.  1.  1.  1.
  1.  1.  1.  1.  1.  1.  1.  1.  1.  1.  1.  1.  1.  1.  1.  1.  1.  1.
  1.  1.  1.  1.  1.  1.  1.  1.  1.  1.  0.  1.  1.  1.  0.  0.  1.  1.
  1.  1.  1.  0.  1.  1.  1.  1.  1.  1.  1.  1.  1.  1.  1.  1.  1.  1.
  1.  1.  1.  1.  1.  1.  1.  1.  1.  1.  1.  1.  1.  1.  1.  1.  1.  1.
  1.  1.  1.  1.  1.  1.  0.  1.  1.  1.  0.  1.  1.  1.  1.  1.  1.  1.
  1.  1.  1.  1.  1.  1.  1.  1.  1.  1.  0.  1.  1.  1.  1.  1.  1.  1.
  1.  0.  1.  1.  1.  1.  1.  1.  1.  1.  1.  0.  1.  1.  1.  1.  1.  1.
  1.  1.  1.  1.  1.  1.  0.  1.  1.  1.  1.  1.  1.  1.  1.  1.  1.  1.
  1.  1.]
--------------------------------------------------------------
1 | 267 | 55
0 | 4 | 18
 0.212209 : 20 passes : dbow+dmc_inferred 0.0s 2.6s
completed pass 20 at alpha 0.002200
END 2015-11-20 22:25:26.660770
0.171512 Doc2Vec(dbow,d100,n5,mc2,t8)
0.171512 Doc2Vec(dbow,d100,n5,mc2,t8)_inferred
0.171512 Doc2Vec(dm/c,d100,n5,w5,mc2,t8)
0.171512 Doc2Vec(dm/c,d100,n5,w5,mc2,t8)_inferred
0.171512 Doc2Vec(dm/m,d100,n5,w10,mc2,t8)
0.171512 dbow+dmc
0.171512 dbow+dmc_inferred
0.171512 dbow+dmm
0.191860 Doc2Vec(dm/m,d100,n5,w10,mc2,t8)_inferred
0.197674 dbow+dmm_inferred
for doc 486...
Doc2Vec(dm/c,d100,n5,w5,mc2,t8):
 [(2646, 0.916163444519043), (1642, 0.9038116931915283), (486, 0.8668636083602905)]
Doc2Vec(dbow,d100,n5,mc2,t8):
 [(486, 0.970076858997345), (3202, 0.8914741277694702), (656, 0.8819394111633301)]
Doc2Vec(dm/m,d100,n5,w10,mc2,t8):
 [(486, 0.8631429076194763), (3202, 0.7404059171676636), (2421, 0.7040026187896729)]
TARGET (500): «Só que me surpreendi e passei a ver alguns motivos muito sólidos para continuar a leitura .»

SIMILAR/DISSIMILAR DOCS PER MODEL Doc2Vec(dm/c,d100,n5,w5,mc2,t8):

MOST (54, 0.9807636141777039): «Depois que li Capitães da Areia acabei sendo dominado por o vício de a leitura e devo isso a o mestre Jorge Amado .»

MEDIAN (999, 0.1068710908293724): «É um livro bem atual , aborda temas como a invasão de privacidade , a tecnologia cada vez mais presente em a vida de as pessoas , a manipulação de a imprensa e a maior parcela de a população mantida em a ignorância através de o entretenimento de as massas .»

LEAST (2353, -0.9868801236152649): «Um livro instigante , uma história com sabor de quero mais , aventuras , vingança , romance é um pouco de o que se pode esperar de a obra de o magnífico Sheldon ...»

most similar words for 'Bem' (13 occurences)
