-----------------------tags inferidas-----------------------
[ 0.  1.  1.  1.  1.  1.  1.  1.  1.  1.  1.  1.  0.  1.  1.  1.  1.  1.
  1.  1.  1.  1.  1.  1.  1.  1.  1.  1.  1.  1.  1.  1.  1.  1.  1.  1.
  1.  1.  1.  1.  1.  1.  1.  1.  1.  1.  1.  1.  1.  1.  1.  1.  1.  1.
  1.  1.  1.  1.  1.  0.  1.  1.  1.  1.  1.  1.  1.  1.  1.  1.  1.  1.
  1.  1.  1.  1.  0.  1.  1.  1.  1.  1.  1.  1.  0.  1.  1.  1.  1.  0.
  1.  1.  1.  1.  1.  1.  1.  1.  1.  1.  1.  1.  1.  1.  1.  1.  1.  1.
  1.  1.  1.  1.  1.  1.  1.  1.  1.  1.  1.  1.  0.  1.  1.  1.  1.  1.
  1.  1.  1.  1.  1.  1.  1.  1.  0.  1.  1.  1.  1.  1.  1.  1.  1.  1.
  1.  1.  1.  1.  0.  1.  1.  1.  1.  1.  1.  1.  1.  1.  0.  1.  1.  1.
  1.  1.  1.  1.  1.  1.  1.  1.  1.  1.  1.  1.  1.  1.  1.  1.  1.  1.
  1.  1.  1.  1.  1.  1.  1.  1.  1.  1.  0.  1.  1.  1.  1.  1.  1.  1.
  1.  1.  1.  1.  1.  1.  1.  1.  1.  1.  1.  1.  1.  1.  1.  0.  1.  1.
  1.  1.  1.  1.  1.  1.  1.  1.  1.  1.  1.  1.  1.  1.  1.  1.  1.  1.
  1.  1.  1.  1.  0.  1.  1.  1.  0.  1.  1.  1.  1.  1.  1.  1.  1.  1.
  1.  1.  1.  1.  1.  1.  1.  1.  1.  1.  1.  1.  1.  1.  1.  1.  1.  1.
  1.  1.  1.  1.  1.  1.  1.  1.  1.  1.  1.  1.  1.  1.  1.  0.  1.  0.
  1.  1.  1.  1.  0.  0.  1.  1.  1.  1.  0.  1.  0.  1.  1.  1.  1.  0.
  1.  1.  1.  1.  1.  1.  1.  1.  1.  1.  1.  1.  1.  1.  1.  1.  1.  1.
  1.  1.  1.  1.  1.  1.  1.  1.  0.  1.  1.  1.  1.  1.  1.  1.  1.  0.
  1.  1.]
--------------------------------------------------------------
1 | 271 | 50
0 | 9 | 14
 0.186047 : 20 passes : dbow+dmc_inferred 0.0s 2.4s
completed pass 20 at alpha 0.002200
END 2015-11-20 22:50:25.665408
0.156977 dbow+dmm_inferred
0.159884 Doc2Vec(dm/m,d100,n5,w10,mc2,t8)_inferred
0.162791 Doc2Vec(dbow,d100,n5,mc2,t8)_inferred
0.162791 dbow+dmm
0.168605 Doc2Vec(dbow,d100,n5,mc2,t8)
0.168605 Doc2Vec(dm/m,d100,n5,w10,mc2,t8)
0.168605 dbow+dmc
0.168605 dbow+dmc_inferred
0.171512 Doc2Vec(dm/c,d100,n5,w5,mc2,t8)
0.171512 Doc2Vec(dm/c,d100,n5,w5,mc2,t8)_inferred
for doc 1344...
Doc2Vec(dm/c,d100,n5,w5,mc2,t8):
 [(3181, 0.2996984124183655), (326, 0.27754274010658264), (1497, 0.27436092495918274)]
Doc2Vec(dbow,d100,n5,mc2,t8):
 [(372, 0.8470689654350281), (1833, 0.8319826722145081), (2216, 0.8296257257461548)]
Doc2Vec(dm/m,d100,n5,w10,mc2,t8):
 [(711, 0.952064573764801), (2970, 0.9519408941268921), (1261, 0.9505002498626709)]
TARGET (2259): «Bom livro , mas a cada página me fazia lembrar " A PESTE " de Camus .... ?»

SIMILAR/DISSIMILAR DOCS PER MODEL Doc2Vec(dm/c,d100,n5,w5,mc2,t8):

MOST (1083, 0.9545518755912781): «Os métodos de controle de o sistema são extremamente engenhosos , envolvendo não só o controle de os corpos , mas também de as mentes .»

MEDIAN (2593, 0.01211855374276638): «Se estraguei sua percepção peço desculpas , afinal eu mesma sou apaixonada por Crepúsculo mais sei admitir e visualizar o quão ruim o livro é .»

LEAST (2966, -0.9254432320594788): «Muito vocabulário para pouca idade , como em essa frase , de quando ela tinha 6 anos : " - Uma beleza enorme , mamãe .»

most similar words for 'dizer' (44 occurences)
